{
  "main.css": "http://192.168.110.165:8000/static/tbs/static/css/main.478a7c71.chunk.css",
  "main.js": "http://192.168.110.165:8000/static/tbs/static/js/main.ea3104ab.chunk.js",
  "main.js.map": "http://192.168.110.165:8000/static/tbs/static/js/main.ea3104ab.chunk.js.map",
  "runtime~main.js": "http://192.168.110.165:8000/static/tbs/static/js/runtime~main.4f2939ac.js",
  "runtime~main.js.map": "http://192.168.110.165:8000/static/tbs/static/js/runtime~main.4f2939ac.js.map",
  "static/css/2.b7b8848f.chunk.css": "http://192.168.110.165:8000/static/tbs/static/css/2.b7b8848f.chunk.css",
  "static/js/2.bfeb8e8d.chunk.js": "http://192.168.110.165:8000/static/tbs/static/js/2.bfeb8e8d.chunk.js",
  "static/js/2.bfeb8e8d.chunk.js.map": "http://192.168.110.165:8000/static/tbs/static/js/2.bfeb8e8d.chunk.js.map",
  "index.html": "http://192.168.110.165:8000/static/tbs/index.html",
  "precache-manifest.28a7209ab25dc9b0d95bbb61cc5ff9e7.js": "http://192.168.110.165:8000/static/tbs/precache-manifest.28a7209ab25dc9b0d95bbb61cc5ff9e7.js",
  "service-worker.js": "http://192.168.110.165:8000/static/tbs/service-worker.js",
  "static/css/2.b7b8848f.chunk.css.map": "http://192.168.110.165:8000/static/tbs/static/css/2.b7b8848f.chunk.css.map",
  "static/css/main.478a7c71.chunk.css.map": "http://192.168.110.165:8000/static/tbs/static/css/main.478a7c71.chunk.css.map",
  "static/media/logo.jpg": "http://192.168.110.165:8000/static/tbs/static/media/logo.426c15dc.jpg",
  "static/media/app.scss": "http://192.168.110.165:8000/static/tbs/static/media/open-iconic.eca2c267.svg"
}